^C:\USERS\SAYON\SOURCE\REPOS\GAME 9.0P\GAME 9.0P\DEBUG\CLOCK.OBJ|C:\USERS\SAYON\SOURCE\REPOS\GAME 9.0P\GAME 9.0P\DEBUG\ENTITY.OBJ|C:\USERS\SAYON\SOURCE\REPOS\GAME 9.0P\GAME 9.0P\DEBUG\ENVIRONMENT.OBJ|C:\USERS\SAYON\SOURCE\REPOS\GAME 9.0P\GAME 9.0P\DEBUG\GAME.OBJ|C:\USERS\SAYON\SOURCE\REPOS\GAME 9.0P\GAME 9.0P\DEBUG\GAME_MENU_VIEWS.OBJ|C:\USERS\SAYON\SOURCE\REPOS\GAME 9.0P\GAME 9.0P\DEBUG\MAIN.OBJ|C:\USERS\SAYON\SOURCE\REPOS\GAME 9.0P\GAME 9.0P\DEBUG\MAP.OBJ|C:\USERS\SAYON\SOURCE\REPOS\GAME 9.0P\GAME 9.0P\DEBUG\MATH.OBJ|C:\USERS\SAYON\SOURCE\REPOS\GAME 9.0P\GAME 9.0P\DEBUG\MENU_VIEWS.OBJ|C:\USERS\SAYON\SOURCE\REPOS\GAME 9.0P\GAME 9.0P\DEBUG\OBJECT.OBJ|C:\USERS\SAYON\SOURCE\REPOS\GAME 9.0P\GAME 9.0P\DEBUG\PLAYER.OBJ|C:\USERS\SAYON\SOURCE\REPOS\GAME 9.0P\GAME 9.0P\DEBUG\PROCESS.OBJ
C:\SFML-2.5.1\LIB\SFML-GRAPHICS-D.LIB
C:\SFML-2.5.1\LIB\SFML-WINDOW-D.LIB
C:\SFML-2.5.1\LIB\SFML-SYSTEM-D.LIB
C:\SFML-2.5.1\LIB\SFML-AUDIO-D.LIB
C:\PROGRAM FILES (X86)\WINDOWS KITS\10\LIB\10.0.17763.0\UM\X86\KERNEL32.LIB
C:\PROGRAM FILES (X86)\WINDOWS KITS\10\LIB\10.0.17763.0\UM\X86\USER32.LIB
C:\PROGRAM FILES (X86)\WINDOWS KITS\10\LIB\10.0.17763.0\UM\X86\GDI32.LIB
C:\PROGRAM FILES (X86)\WINDOWS KITS\10\LIB\10.0.17763.0\UM\X86\WINSPOOL.LIB
C:\PROGRAM FILES (X86)\WINDOWS KITS\10\LIB\10.0.17763.0\UM\X86\COMDLG32.LIB
C:\PROGRAM FILES (X86)\WINDOWS KITS\10\LIB\10.0.17763.0\UM\X86\ADVAPI32.LIB
C:\PROGRAM FILES (X86)\WINDOWS KITS\10\LIB\10.0.17763.0\UM\X86\SHELL32.LIB
C:\PROGRAM FILES (X86)\WINDOWS KITS\10\LIB\10.0.17763.0\UM\X86\OLE32.LIB
C:\PROGRAM FILES (X86)\WINDOWS KITS\10\LIB\10.0.17763.0\UM\X86\OLEAUT32.LIB
C:\PROGRAM FILES (X86)\WINDOWS KITS\10\LIB\10.0.17763.0\UM\X86\UUID.LIB
C:\PROGRAM FILES (X86)\WINDOWS KITS\10\LIB\10.0.17763.0\UM\X86\ODBC32.LIB
C:\PROGRAM FILES (X86)\WINDOWS KITS\10\LIB\10.0.17763.0\UM\X86\ODBCCP32.LIB
C:\USERS\SAYON\SOURCE\REPOS\GAME 9.0P\GAME 9.0P\DEBUG\CLOCK.OBJ
C:\USERS\SAYON\SOURCE\REPOS\GAME 9.0P\GAME 9.0P\DEBUG\ENTITY.OBJ
C:\USERS\SAYON\SOURCE\REPOS\GAME 9.0P\GAME 9.0P\DEBUG\GAME.OBJ
C:\USERS\SAYON\SOURCE\REPOS\GAME 9.0P\GAME 9.0P\DEBUG\GAME_MENU_VIEWS.OBJ
C:\USERS\SAYON\SOURCE\REPOS\GAME 9.0P\GAME 9.0P\DEBUG\MENU_VIEWS.OBJ
C:\USERS\SAYON\SOURCE\REPOS\GAME 9.0P\GAME 9.0P\DEBUG\MAIN.OBJ
C:\USERS\SAYON\SOURCE\REPOS\GAME 9.0P\GAME 9.0P\DEBUG\MAP.OBJ
C:\USERS\SAYON\SOURCE\REPOS\GAME 9.0P\GAME 9.0P\DEBUG\MATH.OBJ
C:\USERS\SAYON\SOURCE\REPOS\GAME 9.0P\GAME 9.0P\DEBUG\OBJECT.OBJ
C:\USERS\SAYON\SOURCE\REPOS\GAME 9.0P\GAME 9.0P\DEBUG\PLAYER.OBJ
C:\USERS\SAYON\SOURCE\REPOS\GAME 9.0P\GAME 9.0P\DEBUG\ENVIRONMENT.OBJ
C:\USERS\SAYON\SOURCE\REPOS\GAME 9.0P\GAME 9.0P\DEBUG\PROCESS.OBJ
C:\WINDOWS\SYSTEM32\TZRES.DLL
C:\WINDOWS\GLOBALIZATION\SORTING\SORTDEFAULT.NLS
C:\PROGRAM FILES (X86)\MICROSOFT VISUAL STUDIO\2017\COMMUNITY\VC\TOOLS\MSVC\14.16.27023\LIB\X86\MSVCPRTD.LIB
C:\PROGRAM FILES (X86)\MICROSOFT VISUAL STUDIO\2017\COMMUNITY\VC\TOOLS\MSVC\14.16.27023\LIB\X86\MSVCRTD.LIB
C:\PROGRAM FILES (X86)\MICROSOFT VISUAL STUDIO\2017\COMMUNITY\VC\TOOLS\MSVC\14.16.27023\LIB\X86\OLDNAMES.LIB
C:\PROGRAM FILES (X86)\MICROSOFT VISUAL STUDIO\2017\COMMUNITY\VC\TOOLS\MSVC\14.16.27023\LIB\X86\VCRUNTIMED.LIB
C:\PROGRAM FILES (X86)\WINDOWS KITS\10\LIB\10.0.17763.0\UCRT\X86\UCRTD.LIB
C:\PROGRAM FILES (X86)\WINDOWS KITS\10\BIN\10.0.17763.0\X86\RC.EXE
C:\PROGRAM FILES (X86)\MICROSOFT VISUAL STUDIO\2017\COMMUNITY\VC\TOOLS\MSVC\14.16.27023\BIN\HOSTX86\X86\CVTRES.EXE
C:\PROGRAM FILES (X86)\MICROSOFT VISUAL STUDIO\2017\COMMUNITY\VC\TOOLS\MSVC\14.16.27023\BIN\HOSTX86\X86\MSPDBSRV.EXE
